क्या आप एक व्यक्ति है जिसके पास ईमानदारी, ईमानदारी का मूल्य है "
क्या आप खरीदारी पसंद करते हैं, अगर हाँ, तो आप कितने घंटे एक ओर खरीद सकते हैं।
 मैंने रिचार्ज किया है, मैं इसे खोजने में असमर्थ हूँ। मैं क्या करूँ
 मैंने रिचार्ज किया है, मैं इसे खोजने में असमर्थ हूँ। मैं क्या करूँ?
 मैंने बिल का भुगतान किया है, मैं उसे खोजने में असमर्थ हूँ। मैं क्या करूँ
 मैंने बिल का भुगतान किया है, मैं उसे खोजने में असमर्थ हूँ। मैं क्या करूँ?
0.15 gb रिचार्ज
1 gb
1.05 gb रिचार्ज
105 gb रिचार्ज
10gb डेटा पैक
12 प्ले जिओ क्रिकेट
123 123 माइक टेस्ट
123 123 माइक परीक्षण
125 gb रिचार्ज
126 gb रिचार्ज
136 gb रिचार्ज
140 gb रिचार्ज
149 योजना
149 प्लान लाभ
149 प्लान विवरण
149 रिचार्ज
149 रीचार्ज गतिविधि
18 mb
19 रिचार्ज
198 रिचार्ज
199 रिचार्ज
1999 रिचार्ज
2 gb डे प्लान
2.1 gb रिचार्ज
28 gb रिचार्ज
299 रिचार्ज
3 तरीका कॉलिंग
300 399 प्लान जेओ
301 डाटा प्लान
309 और 509 ऑफर
309 और 509 ऑफर
309 और 509 प्रस्ताव
349 रिचार्ज
350 gb रिचार्ज
398 योजना
398 रिचार्ज
399 लाभ
399 पैक
399 योजना
399 रिचार्ज
जिओ. कॉम का उपयोग करके 40 gb डेटा टॉप अप
42 gb रिचार्ज
448 रिचार्ज
449 रिचार्ज
4880 रिचार्ज
498 योजना
498 रिचार्ज
499 योजना
4999 रिचार्ज
4g फोन सक्षम करें
4g lte फोन
509 रिचार्ज
509 रिचार्ज विवरण
56 gb रिचार्ज
599 का रिचार्ज करण
60 gb रिचार्ज
699 रुपये
70 gb रिचार्ज
750 gb रिचार्ज
799 रिचार्ज
8072573989 मेरा दूसरा नंबर है मुझे इसे रिचार्ज करने की जरूरत है अब यह निष्क्रिय है
84 gb रिचार्ज
91 gb रिचार्ज
98 रिचार्ज
999 पैक
999 रिचार्ज
9999 रिचार्ज
बिशुवा संक्रांति
एक बहुत ही सुखी पोइला बोइशाख
एक बहुत खुश पुथान्दु
एक बहुत प्रसन्न रोंगाली बिहू
एक बहुत प्रसन्न तमिल पुथान्दु
एक बहुत खुश वैशाखई
एक बहुत खुश विशु
जी आवाज़ के लिए जिओ की क्षमता
जिओ4gवॉइस की क्षमता
जिओनेत करने के लिए लॉगइन के बिना इंटरनेट का उपयोग करने में सक्षम
249 योजना के बारे में
कॉल प्रतीक्षा के बारे में
डेटा के बारे में
जिओ क्रिकेट के बारे में
जिओ डी2h के बारे में
जिओ फोन के बारे में
जिओक्लाउड ऐप के बारे में
वीडियो कॉंफ़्रेंसिंग के बारे में
ध्वनि कॉंफ़्रेंसिंग के बारे में
वाउचर के बारे में
जिओमोनेय क्या है के बारे में
399 योजना के बारे में
सूरत से मुंबई सेंट्रल तक ए सी ट्रेन
क्रॉस सत्यापन के बाद अजिओ पार्सल स्वीकार करें
जिओमोनेय के माध्यम से पैसे स्वीकार करें
क्रॉस सत्यापन के बाद पार्सल स्वीकार करें
जिओफी का उपयोग करके जिओ प्रीमियम ऐप्स तक पहुंचें
कंप्यूटर पर अभिगम जिओतव
लैपटॉप पर पहुंच जिओतव
गैर विद्यार्थी के लिए कॉलेज में जिओनेत की पहुंच
जिओ के लिए एक्सेस पॉइंट सेटिंग्स
जिओफी के माध्यम से जिओ प्रीमियम ऐप्स एक्सेस कर रहा है
खाता शेष
खाता जांच
जिओमोनेय के लिए खाता संख्या
खाता सहायता
खाता विवरण
जिओमोनेय में खाता प्रकार
खाता उपयोग
खाता उपयोग
डी.एन.डी. सक्रिय करें
मेरा डी.एन.डी. सक्रिय करें
सिम सक्रिय करें
जिओ फाइबर कनेक्शन के लिए सक्रियण समय
जिओ ट्यूंस का सक्रियण समय
उच्च डेटा उपयोग के अग्रणी कार्यकलाप
मीजिओ में खाता जोड़ें
जिओ एक्सप्रेस समाचार में कुछ प्रकाशन जोड़ें
विश्वसनीय सूची में फ्लैग किए गए ऐप जोड़ें
जिओ एक्सप्रेस समाचार पर मेरी प्रतिक्रिया जोड़ें
जोड़ें
पैक पर जोड़ें
जिओ एक्सप्रेस समाचार में हिंदू प्रकाशन जोड़ें
हिंदू को जिओ एक्सप्रेस समाचार में जोड़ें
विश्वसनीय सूची में ऐप जोड़ना
अल्काटेल फोन के लिए अतिरिक्त डेटा प्रस्ताव
एसुस फोन के लिए अतिरिक्त डेटा प्रस्ताव
कैनवास इंफिनिटी फोन के लिए अतिरिक्त डेटा ऑफर
कैनवास फोन के लिए अतिरिक्त डेटा ऑफर
कार्बन फोन के लिए अतिरिक्त डेटा प्रस्ताव
सेल्कोन फोन के लिए अतिरिक्त डेटा प्रस्ताव
कोमियो फोन के लिए अतिरिक्त डेटा प्रस्ताव
कूलपैड फोन के लिए अतिरिक्त डेटा प्रस्ताव
फ्लिपकार्ट के लिए अतिरिक्त डेटा प्रस्ताव
जिओनी के लिए अतिरिक्त डेटा प्रस्ताव
जिओनी एम7 पावर फोन के लिए अतिरिक्त डेटा ऑफर
गूगल जिओफी फ़ोन के लिए अतिरिक्त डेटा ऑफर
इंटेक्स फोन के लिए अतिरिक्त डेटा ऑफर
आइटील फोन के लिए अतिरिक्त डेटा प्रस्ताव
जिओनी के लिए अतिरिक्त डेटा प्रस्ताव
जिओनी एम7 पावर फोन के लिए अतिरिक्त डेटा ऑफर
कार्बन फोन के लिए अतिरिक्त डेटा प्रस्ताव
कार्बन फोन के लिए अतिरिक्त डेटा प्रस्ताव
कुल्त फोन के लिए अतिरिक्त डेटा प्रस्ताव
लावा फोन के लिए अतिरिक्त डेटा प्रस्ताव
लेनोवो फोन के लिए अतिरिक्त डेटा प्रस्ताव
एल.जी. g6 फोन के लिए अतिरिक्त डेटा ऑफर
एल.जी. के7आई फोन के लिए अतिरिक्त डेटा प्रस्ताव
एल.जी. क्यू6 फोन के लिए अतिरिक्त डेटा प्रस्ताव
एल.जी. q6 प्लस फोन के लिए अतिरिक्त डेटा ऑफर
एम7 पावर फोन के लिए अतिरिक्त डेटा ऑफर
एमआई अधिकतम 2 फोन के लिए अतिरिक्त डेटा प्रस्ताव
माइक्रोमैक्स के लिए अतिरिक्त डेटा प्रस्ताव
माइक्रोमैक्स कैनवास इंफिनिटी फोन के लिए अतिरिक्त डेटा ऑफर
मोटोरोला के लिए अतिरिक्त डेटा प्रस्ताव
मोटोरोला z2 फोन के लिए अतिरिक्त डेटा ऑफर
मोटोरोला z2 प्ले फ़ोन के लिए अतिरिक्त डेटा ऑफर
वानप्लस फोन के लिए अतिरिक्त डेटा प्रस्ताव
पॅनसोनिक फोन के लिए अतिरिक्त डेटा प्रस्ताव
रेदमी के लिए अतिरिक्त डेटा प्रस्ताव
रेदमी 5a फोन के लिए अतिरिक्त डेटा ऑफर
सैमसंग के लिए अतिरिक्त डेटा ऑफर
स्वाइप फोन के लिए अतिरिक्त डेटा ऑफर
z2 प्ले फोन के लिए अतिरिक्त डेटा ऑफर
जिओक्ष फोन के लिए अतिरिक्त डेटा प्रस्ताव
जिओ विस्तार उपकरण के लिए आवश्यक अतिरिक्त किराया
अजिओस वापसी डेस्क का पता
एच का उपयोग करके स्वतः भुगतान कार्यक्षमता के लिए नामांकन का लाभ
जिओपाय सुविधा का उपयोग करके स्वतः भुगतान कार्यक्षमता के लिए नामांकन का लाभ
अंतर्राष्ट्रीय रोमिंग पैक का लाभ
एच का उपयोग करके स्वतः भुगतान कार्यक्षमता के लिए पंजीकरण का लाभ
जिओपाय सुविधा का उपयोग करके स्वतः भुगतान कार्यक्षमता के लिए पंजीकरण का लाभ
g आवाज उपयोगकर्ता के लिए g आवाज उपयोगकर्ता के लिए g आवाज उपयोगकर्ता के लिए उपयोग करने के लिए jio के लिए लाभ
गैर जिओ4gवॉइस उपयोक्ता के साथ उपयोग करने के लिए जिओ4gवॉइस उपयोक्ता के लिए लाभ
एचडी आवाज के लाभ
उच्च परिभाषा ध्वनि के लाभ
जिओ फी के लाभ
जिओमोनेय के लाभ
जिओनेत ऐप के लाभ
जिओफोने मैच पास के लाभ
वॉलटेक सेवाओं के लाभ
मुझे एक बेहतर योजना की सलाह दो
मुझे एक योजना की सलाह दो
मुझे एक अच्छी योजना की सलाह दो
मुझे एक बेहतर योजना की सलाह दो
मुझे एक योजना की सलाह दो
किफायती रिचार्ज योजनाएं
31 मार्च के प्रधानमंत्री सदस्यता रिचार्ज के बाद कृपया मुझे बताएं कि क्या हुआ
31 मार्च के बाद जिओ का क्या समाधान होगा
जिओचात डाउनलोड करने के बाद इसे कैसे प्रारंभ करना है
कितनी देर बाद मैं जिओ सिम का उपयोग कर सकता हूँ
खरीद के बाद मेरा सिम कब तक काम शुरू होगा
जिओफी एल.जी. टीवी ऑफर के कितने दिन के वाउचर मेरे खाते में जोड़े जाएंगे
लैपटॉप ऑफर के साथ जिओफी के कितने दिन के वाउचर मेरे खाते में जोड़े जाएंगे
गूगल जिओफी ऑफर के कितने घंटे अतिरिक्त डेटा मेरे खाते में जोड़े जाएं
क्रय करने के बाद जीओ नंबर का उपयोग करने के लिए कितना समय लगेगा
नया सिम लेने के बाद अगला प्रक्रिया क्या है
जिओमोनेय खाते का उपयोग करने की आयु
एयरटेल जिओ से बेहतर है
अजिओ कूपन कोड काम नहीं कर रहा है
अजिओ कूपन लागू नहीं हुआ
अजिओ शिपिंग शुल्क
अजिओ भंडार क्रेडिट
अजिओस वापसी डेस्क पता
आकाश अनन्त इशा मुकेश नीता
मुझे अपनी पत्रिका डाउनलोड पर चेतावनी दें
सभी ऐप्स
सभी भाषाएं जो जिओ फोन सपोर्ट करती हैं
सभी भाषाएं जो जिओ फोन का समर्थन करती हैं
मेरे सभी ऐप्स अपडेट किए गए
मेरे सभी बिल विवरण
मेरे सभी रिचार्ज विवरण
सभी रिचार्ज
गीत डाउनलोड की अनुमति दें
जिओचात में मेरी चैट पृष्ठभूमि छवि बदलें
मेरी चैट भाषा बदलें
मेरे ऑर्डर को बदलें
मेरे ऑर्डर का विवरण बदलें
मीजिओ में मेरी प्रोफ़ाइल बदलें
जिओइद का पासवर्ड बदलें
हमेशा जिओ फाइबर कनेक्शन धीमा
हमेशा जिओ सिम धीमी
जिओनेत में लॉगइन के बिना फेसबुक का उपयोग करने में सक्षम हूं
मैं लॉगइन के बिना जिओनेत का उपयोग करने में सक्षम हूं
मैं अपने मोबाइल पर क्रिकेट खेलने तक नहीं पहुँच सका
क्या मैं एक जिओ प्रधान सदस्य हूँ
क्या मैं जिओ प्रधानमंत्री का सदस्य हूँ
क्या मैं व्यक्तिगत वार्तालाप के लिए अलर्ट ऑफ कर सकता हूँ
क्या मैं जिओ असली मेरे प्रस्ताव के लिए सक्षम हूँ
क्या मैं जिओफी एल.जी. टीवी ऑफर के लिए सक्षम हूँ
क्या मैं लैपटॉप ऑफर के साथ जिओफी करने में सक्षम हूं
क्या मैं इंटरनेट से कनेक्ट हूँ
क्या मैं इंटरनेट से जुड़ा हुआ हूँ
क्या मैं अपने दैनिक सीमित डेटा पार कर रहा हूँ
क्या मैं जिओफी उपकरण की खरीद पर नए साल की पेशकश के लिए योग्य हूँ
क्या मैं जिओ असली मेरे ऑफर के लिए योग्य हूँ
क्या मैं जिओफी एल.जी. टीवी ऑफर के लिए पात्र हूँ
क्या मैं लैपटॉप ऑफर के साथ जिओफी के लिए पात्र हूँ
क्या मैं पावरप्ले के लिए पात्र हूँ
क्या मैं सैमसंग गैलेक्सी जे2 ऑफर के लिए पात्र हूँ
क्या मैं सैमसंग गैलेक्सी जे7 डुओ कैशबैक और डबल डेटा ऑफर का लाभ उठाने के लिए पात्र हूँ
क्या मैं जिओ मैं भी मिस इंडिया डिजिटल प्रतियोगिता में भाग लेने के योग्य हूँ
क्या मैं जिओक्लाउड की सदस्यता के लिए योग्य हूँ
क्या मैं जिओमोनेय खाते का उपयोग करने के लिए पात्र हूँ
क्या मैं गूगल जिओफी आईटी ऑफर के लिए एलिगलिबले हूँ
क्या मैं कम सिग्नल क्षेत्र में हूँ
क्या आई जिओ प्रधानमंत्री
क्या आई जिओ प्रधानमंत्री यूजर
क्या मैं आपसे बड़ा हूँ
क्या मैं जिओ प्रधानमंत्री पर हूँ
क्या मैं प्रधानमंत्री पर हूँ
क्या मैं सही योजना पर हूँ
क्या मैं अपने डेटा से बाहर हूँ
क्या मैं अपने डेटा से अधिक हूँ
क्या मैं प्रधानमंत्री हूं
क्या मैं अपने डेटा से बाहर चल रहा हूँ
क्या मैं lte फोन का उपयोग कर रहा हूँ
क्या मैं volte मोबाइल का उपयोग कर रहा हूँ
क्या मैं volte फोन का उपयोग कर रहा हूँ
क्या मैं तुमसे छोटा हूँ
मैं छात्र नहीं हूं लेकिन मुझे कॉलेज में जिओनेत की पहुंच चाहिए
मैं जियसिनेमा ऐप एक्सेस करने में सक्षम नहीं हूं
कॉल से कनेक्ट नहीं हो पाया
प्ले करते समय कॉल कनेक्ट नहीं हो पाया
मैं जियसिनेमा से फिल्मों को डाउनलोड करने में सक्षम नहीं हूं
जियसिनेमा से ऑफ़लाइन फिल्मों को डाउनलोड करने में असमर्थ
मैं जियसिनेमा में कुछ फिल्मों को खोजने में सक्षम नहीं हूं
कॉल करने में सक्षम नहीं
कॉल करने में सक्षम नहीं हूं मुझे क्या करना चाहिए
मैं जियसिनेमा ऐप खोलने में सक्षम नहीं हूं
मूवी के लिए डाउनलोड बटन देखने में सक्षम नहीं हैं
प्ले करते समय एम एस भेजने और प्राप्त करने में असमर्थ हूं
जिओनेत में लॉगिन नहीं है अभी भी डाउनलोड करने में सक्षम हैं
मुझे जिओ उत्पाद से संतुष्ट नहीं है इसे कैसे बदलना है
जिओ उत्पाद से संतुष्ट नहीं हूं इसे कैसे वापस करना है
मैं अजिओ उत्पाद से संतुष्ट नहीं हूं इसे कैसे बदला जाना है
मुझे अजिओ उत्पाद से संतुष्ट नहीं है इसे कैसे वापस करना है
मैं उत्पाद से संतुष्ट नहीं हूं इसका विनिमय कैसे करें
मुझे उत्पाद से संतुष्ट नहीं है इसे कैसे वापस करना है
मुझे उत्पाद से संतुष्ट नहीं है कैसे इसे जिओ. कॉम पर वापस करना है
केवल जिओ नंबर पर कॉल कर सकते हैं
मैं जियसिनेमा खोलने में असमर्थ हूं
डिलीवरी और ऑर्डर स्थिति में दुविधा
मीजिओ में प्रोफ़ाइल संशोधन करें
शेष राशि
जब मैं अजिओ में अपना ऑर्डर दे रहा था तब राशि डेबिट हो गई
राशि काट ली गई है लेकिन अजिओ ऑर्डर की पुष्टि नहीं है
एनालॉग प्ले क्रिकेट प्रारंभ
मेरे फ़ोन सॉफ्टवेयर का विश्लेषण करें
और कैसे 10 gb अतिरिक्त डेटा प्राप्त करने के लिए
और आउटगोइंग कॉल की मेरी संख्या का अंतिम कॉल इतिहास
और कई लोग jio को विचार नेटवर्क में परिवर्तित करते हैं क्योंकि नेटवर्क बहुत कम सेवा है
और जिओ के मालिक कौन है
जिओचात चलाने के लिए android संस्करण आवश्यक है
जिओतव चलाने के लिए android संस्करण आवश्यक है
जियसेकरिटी के एंटी थेफ्ट की विशेषताएं
जियसेकरिटी में अन्तिमाल्वारे स्कैन
जियसेकरिटी की एंटिथेफ्ट विशेषताएं
कोई बैलेंस
कोई सपना जिसे आप प्राप्त नहीं कर सके
कोई मुफ्त पेशकश
आदेशित राशि पर लागू कोई भी गोपनीय प्रभार लागत
कोई भी नया जिओ प्लान 339 रुपये योजना
जिओ से कोई नया सामान
कोई भी ऑफर
कोई भी रिचार्ज ऑफर
अजिओ से आदेशित राशि पर लागू कोई भी शिपिंग शुल्क
आदेशित राशि पर लागू कोई कर
आदेशित मदों पर लागू कोई कर
जिओ में कुछ नया
जिओ के लिए apn नाम
apn सेटिंग
जिओ के लिए apn सेटिंग्स
जियसेकरिटी में ऐप सलाहकार सुविधा
app खुल नहीं रहा है
ऐप नवीनतम संस्करण जियमसिक
ऐपल वॉच हर जहां कनेक्ट
उच्च डेटा उपयोग वाले अनुप्रयोग
अजिओ पैकेज के सत्यापन के बाद ही स्वीकृति
केवल सत्यापन के बाद पैकेज स्वीकृति
अनुमानित वितरण समय
अजिओ उत्पादों का अनुमानित वितरण समय
ऑर्डर वितरण के लिए अनुमानित समय
अजिओ के आदेश वितरण के लिए अनुमानित समय
जिओ फोन में ऐप्स
जिओ फोन में ऐप्स
उच्च डेटा उपयोग वाले ऐप्स
jo फोन द्वारा समर्थित ऐप्स
क्या अजिओस उत्पाद असली हैं
क्या सभी रिचार्ज डबल धमका ऑफर के लिए पात्र हैं
जिओचात के माध्यम से पैसे भेजने के लिए क्या कोई अतिरिक्त शुल्क लागू है
क्या आर्डर की गई वस्तुओं पर कोई अतिरिक्त शुल्क लागू है
क्या आर्डर किए गए उत्पादों पर कोई अतिरिक्त शुल्क लागू है
क्या अजिओ के आदेशित मदों पर कोई शिपिंग शुल्क लागू है
क्या अजिओ के आदेशित उत्पादों पर कोई शिपिंग शुल्क लागू हैं
क्या apn सेटिंग स्वतः पता चला है
क्या apn सेटिंग को दस्ती रूप से सेट करना हैं
मेरे डिवाइस से हटाए गए जिओक्लाउड पर समर्थित फ़ाइलें हैं
जियसिनेमा में बफरिंग कर रहे हैं
जिओतव में बफरिंग कर रहे हैं
यूट्यूब में बफरिंग कर रहे हैं
क्या वितरण भुगतान पर क्रेडिट कार्ड स्वीकार्य हैं
विशेष फोन निःशुल्क हैं
क्या एच डी चैनल जिओतव पर उपलब्ध हैं
जिओतव पर उच्च परिभाषा चैनल उपलब्ध हैं
jio पर इंटरनेट शुल्क मुफ़्त हैं
क्या इंटरनेट डेटा स्वतः पता चला है
क्या इंटरनेट डेटा को मैनुअल रूप से सेट किया जाना है
क्या इंटरनेट सेटिंग स्वतः पता चला है
क्या इंटरनेट सेटिंग दस्ती रूप से सेट करने के लिए हैं
क्या जिओ ऐप मुफ्त हैं
क्या जिओ फोन सच में मुफ्त हैं
क्या जिओ फोन अभी उपलब्ध हैं
क्या जिओ फोन निःशुल्क हैं
क्या जिओ फोन सच में स्वतंत्र हैं
क्या जिओ ट्यूंस चार्ज करने योग्य हैं
क्या नए ग्राहकों के लिए केवल जज नए पोस्टपेड प्लान लागू हैं
क्या जिओतव पर स्थानीय भाषा चैनल उपलब्ध हैं
क्या lif डिवाइस 4g संगत हैं
क्या मेरी फाइलें जिओक्लाउड में सुरक्षित हैं
क्या मेरी फाइलें जिओक्लाउड में सुरक्षित हैं
क्या मेरा जिओ ऐप टु डेट तक है
क्या मेरा जिओ ऐप अपडेट हुआ है
क्या नेट सेटिंग स्वतः पता चला है
क्या नेट सेटिंग दस्ती रूप से सेट करने के लिए हैं
क्या नए यूजर के लिए केवल नया पोस्टपेड प्लान लागू हैं
क्या ऑक्ट्रोई शुल्क दिए गए आर्डर पर लागू होते हैं
क्या पिछले प्रकरण जियसिनेमा पर उपलब्ध हैं
क्या पिछले टीवी शो जियसिनेमा पर उपलब्ध हैं
क्या फ़ोन कॉल सच में jio पर मुफ्त हैं
jio पर रोमिंग शुल्क मुफ़्त हैं
क्या आदेश पर बिक्री कर लगाया जाता है
क्या अजिओ में दिए गए आर्डर पर शिपिंग शुल्क लागू हैं
मेरे डिवाइस से हटाए गए जिओक्लाउड पर फ़ाइलें समन्वयित कर रहे हैं
क्या अजिओस उत्पाद नकली हैं
क्या जिओचात लेन देन सुरक्षित हैं
क्या जिओफिबेर सेवाओं के लिए कोई अतिरिक्त इंस्टॉलेशन शुल्क लागू है
क्या जिओ सिम के होम डिलीवरी का लाभ उठाने के लिए कोई शुल्क है
क्या sim की होम डिलीवरी का लाभ उठाने के लिए कोई शुल्क है
मीजिओ डाउनलोड करने के लिए क्या कोई शुल्क है
क्या जिओ सिम के लिए कोई शुल्क है
क्या जिओचात के माध्यम से sms भेजने के लिए कोई शुल्क है
क्या जिओचात के माध्यम से sms भेजने के लिए कोई शुल्क है
क्या जिओचात के साथ sms भेजने के लिए कोई शुल्क है
जिओचात का उपयोग करने के लिए क्या कोई शुल्क है
जिओएक्षप्रेस्सनेवस का उपयोग करने के लिए क्या कोई शुल्क है
जिओमोनेय का उपयोग करने के लिए क्या कोई शुल्क है
जिओतव का उपयोग करने के लिए क्या कोई शुल्क है
क्या जिओचात के माध्यम से पैसे भेजने के लिए कोई शुल्क है
जिओचात का उपयोग करने के लिए क्या कोई शुल्क है
क्या जिओक्लाउड का उपयोग करने के लिए कोई शुल्क है
जिओएक्षप्रेस्सनेवस का उपयोग करने के लिए क्या कोई शुल्क है
जिओमोनेय का उपयोग करने के लिए क्या कोई शुल्क है
जिओतव का उपयोग करने के लिए क्या कोई शुल्क है
जी क्लाउड पर क्या कोई नई विशेषताएं हैं
क्या एक से अधिक पते पर डिलीवरी के लिए कोई विकल्प है
क्या एकाधिक पते पर डिलीवरी के लिए कोई विकल्प है
क्या जिओ मैं भी मिस इंडिया डिजिटल प्रतियोगिता पंजीकरण के लिए कोई विशेष प्रक्रिया है
क्या सिम एक्टिवेशन के लिए कोई विशेष प्रक्रिया है
क्या जिओचात की कोई सावधानियां हैं
जिओचात का उपयोग करते समय क्या कोई सावधानी बरती जानी चाहिए
जिओचात का उपयोग करने के लिए क्या कोई प्रोटोकॉल है
क्या जिओचात के माध्यम से पैसे भेजने का कोई नियम है
क्या जिओ फोन के लिए कोई अलग योजनाएं हैं
क्या जिओ प्रधानमंत्री में जिओफी प्लान हैं
क्या जिओ के ये वाउचर असली मेरे ऑफर ट्रांसफर करने योग्य हैं
क्या तुम बाथरूम गायक हो
क्या आप एक अजीब आदमी हैं
तुम लड़की हो या लड़का हो
क्या आप अच्छे वक्ता हैं
क्या आप एक ऐसे व्यक्ति हैं जिसकी प्राप्ति के लिए कल्पना की जाती है
क्या आप खाना पकाने में सक्षम हैं
क्या आप फोन का आदी हैं
क्या आप एक विदेशी हैं
क्या आप एक अंतर्मुखी या बहिर्मुखी हैं
क्या तुम सुंदर हो
क्या आप सीरी से बेहतर हैं
क्या आप जीव हैं
क्या तुम मुझसे ऊब रहे हो
क्या तुम इंसान हो
क्या तुम नपुंसक हो
क्या आप ब्रॉडबैंड ऑपरेटर पसंद करते हैं
क्या आप ऑपरेटर पसंद हैं
क्या तुम मुझे सुनते हो
क्या तुम नर या मादा हो
क्या तुमने शादी की है
क्या आप गरम नहीं महसूस कर रहे हैं
क्या तुम मुझसे बड़े हो
क्या आप व्यक्ति हैं
क्या आप गंभीर हैं
क्या तुम मूर्ख हो
क्या आप महिला हैं
क्या आप किसी के अधीन काम कर रहे हैं
क्या आप युवा हैं
जियसेकरिटी का उपयोग करके संपर्क व्यवस्थित करें
उसके बारे में अपने बॉस से पूछें
असमिया नया साल
असमिया सुपेर्हित गीत
जिओफी उपकरण एकत्र करें
जेओ एक्सप्रेस समाचार के कुछ प्रकाशन पर
मैं किस स्थान पर जिओमोनेय से भुगतान कर सकता हूं
मुझे किस कीमत पर जिओ सिम मिल सकता है
मैं किस दर पर एक जिओफी मिल सकता हूँ
जियमसिक किस गति से काम करेगा
किस समय दैनिक डेटा नवीनीकरण
किस समय मेरा डेटा नवीनीकृत होगा
जिन स्थानों पर मैं जिओमोनेय का उपयोग कर सकता हूं
जिस पर जिओफी उपलब्ध है
जिस पर मिफी उपलब्ध है
स्वतः apn सेटिंग्स
स्वतः कनेक्ट बटन सूचना
स्वतः कनेक्ट जानकारी
स्वतः कनेक्ट विकल्प
जिओमागस के पुराने निर्गम को स्वतः मिटाएँ
जिओ पत्रिका में स्वतः मिटाएँ विकल्प
स्वतः डाउनलोड जिओनेवस्पपेर
समाचार पत्र का स्वतः डाउनलोड अनुभाग
स्वचालित लॉगइन जिओ संगीत
समाचार पत्रों के मुद्दों को स्वतः मिटाएँ
पुराने समाचार पत्रों को स्वतः मिटाएँ
स्वचालित डाउनलोड जिओनेवस्पपेर
जिओमागस में ऑटोमोटिव पत्रिकाएं
बर्थ की उपलब्धता
जिओ फोन की उपलब्धता
मैच के दौरान पावरप्ले का अवैलाबिती
ट्रेन में उपलब्ध बर्थ
जिओतव पर उपलब्ध चैनल
संदेश की उपलब्ध संख्या जो मैं आज उपयोग कर सकता हूँ
उपलब्ध डेटा
उपलब्ध डिस्क स्थान
मेरे फ़ोन में उपलब्ध डिस्क स्थान
उपलब्ध डिस्क स्थान
मेरे फ़ोन में उपलब्ध डिस्क स्थान
उपलब्ध mb
मीजिओ में उपलब्ध प्लान
उपलब्ध एस. एम. एस बैलेंस
बेबे तुम कैसे हो
बच्चा आप कैसे हैं
पृष्ठभूमि रंग परिवर्तन प्रक्रिया
पृष्ठभूमि प्रसंग परिवर्तन प्रक्रिया
जियसेकरिटी की बैकअप और पुनर्स्थापित सुविधा
भविष्य में उपयोग के लिए मेरे संपर्क का बैकअप लें
फेसबुक पर खराब ऑडियो गुणवत्ता
एफबी पर गलत ऑडियो गुणवत्ता
होतस्तार पर खराब ऑडियो गुणवत्ता
जियसिनेमा पर खराब ऑडियो गुणवत्ता
जियमसिक पर खराब ऑडियो गुणवत्ता
जिओतव पर खराब ऑडियो गुणवत्ता
ऑनलाइन पर खराब ऑडियो गुणवत्ता
यूट्यूब पर खराब ऑडियो गुणवत्ता
खराब डेटा गुणवत्ता
जिओ डेटा गति के साथ गलत अनुभव
जिओ फाइबर कनेक्शन गति के साथ खराब अनुभव
होतस्तार की खराब तस्वीर गुणवत्ता
जियसिनेमा की खराब तस्वीर गुणवत्ता
जिओतव की खराब तस्वीर गुणवत्ता
यूट्यूब की खराब तस्वीर गुणवत्ता
होतस्तार पर खराब गुणवत्ता वाली फिल्म
जियसिनेमा पर खराब गुणवत्ता वाली फिल्म
जिओतव पर खराब गुणवत्ता वाली फिल्म
यूट्यूब पर खराब गुणवत्ता वाली फिल्म
होतस्तार पर खराब गुणवत्ता कार्यक्रम
जियसिनेमा पर खराब गुणवत्ता कार्यक्रम
जिओतव पर खराब गुणवत्ता कार्यक्रम
यूट्यूब पर खराब गुणवत्ता कार्यक्रम
होतस्तार पर खराब वीडियो गुणवत्ता
जियसिनेमा पर खराब वीडियो गुणवत्ता
जिओतव पर खराब वीडियो गुणवत्ता
यूट्यूब पर गलत वीडियो गुणवत्ता
बैलेंस
बैलेंस बैलेंस
बैलेंस जांच
बैलेंस जांच
कंप्लीमेंटरी उपयोगकर्ता के लिए ओ टी पी का उपयोग करके बैलेंस जांच
बैलेंस डेटा
बैलेंस पूछताछ
बैलेंस समाप्ति तिथि
इस महीने के लिए बैलेंस
इंटरनेट में बैलेंस
जिओ सिम में बैलेंस
बैलेंस जांच
बैलेंस जिओ
जिओमोनेय का बैलेंस
मेरे फ़ोन नंबर का बैलेंस
बैलेंस कृपया
बैलेंस उपयोग
शेष कार्य
एचडी चैनलों के लिए बैंडविड्थ आवश्यक
उच्च परिभाषा चैनलों के लिए बैंडविड्थ आवश्यक
जिओतव के लिए बैंडविड्थ आवश्यक
रोमिंग के कौन से शर्तों के आधार पर शुल्क निर्भर हैं
बैटरी चार्जर
ध्वनि सम्मेलन आरंभ करें
कॉल होल्ड सेवा शुरू करें
वीडियो कॉल प्रारंभ करें
एच का उपयोग करके स्वतः भुगतान कार्यक्षमता के लिए नामांकन का लाभ
जिओपाय सुविधा का उपयोग करके स्वतः भुगतान कार्यक्षमता के लिए नामांकन का लाभ
एच का उपयोग करके स्वतः भुगतान कार्यक्षमता के लिए पंजीकरण का लाभ
जिओपाय सुविधा का उपयोग करके स्वतः भुगतान कार्यक्षमता के लिए पंजीकरण का लाभ
जियसिनेमा अपडेट करने के बाद लाभ
जिओफोने मैच पास के जेओ ग्राहक के लिए लाभ
एचडी आवाज के लाभ
अंतरराष्ट्रीय रोमिंग पैक के लाभ
जिओ ऑफर के लाभ
जिओमोनेय उपयोग के लाभ
योजना के लाभ एम आर पी 498
बंगाली संगीत
बंगाली नया साल
बर्थ उपलब्धता
सर्वश्रेष्ठ ऑफर
जिओ की सर्वश्रेष्ठ योजना
सर्वोत्तम योजना सिफारिश
सर्वोत्तम योजना अनुशंसाएं
सर्वोत्तम योजना सुझाव
सर्वोत्तम योजना सुझाव
बेस्ट प्रीपेड प्लान
सबसे अच्छा रिचार्ज
मेरे पास सबसे अच्छे रेस्टोरेंट
बैंगलोर में सबसे अच्छे रेस्टोरेंट
मेरे लिए बेहतर योजना सिफारिश
मेरे लिए बेहतर योजना की सिफारिशें
मेरे लिए बेहतर योजना सुझाव
बिहू उत्सव
बिल विवरण
बिल भुगतान
जिओ में बिल भुगतान
बिल वरीयता
मीजिओ में बिल वरीयता
बिल स्थिति
पोस्टपेड प्लान के बिल
बिशुवा संक्रांति उत्सव
बिशुवा संक्रांति उत्सव
जिओचात उपयोगकर्ता ब्लॉक करें
मेरे जिओ सिम को दुरुपयोग से अवरुद्ध करें
इस व्यक्ति को जिओचात पर ब्लॉक करें
जिओचात में नीला टिक
बोहाग बिहू
कॅब बुक करें
मेरे लिए एक कैब बुक करें
ओला कॅब बुक करें
टैक्सी बुक करें
ट्रेन बुक करें
ओला कॅब बुक करें
टैक्सी बुक करें
मेरे लिए कैब बुक करें
मुझे एक कैब बुक करें
मुझे टैक्सी बुक करें
बुक मि कैब
मुझे टैक्सी बुक करें
मेरे लिए ओला कॅब बुक करें
मेरे लिए टैक्सी बुक करें
पत्रिकाओं में बुकमार्क सामग्री
बुकमार्क जिओमागस
बुकमार्क पत्रिका
बूक्मार्किंग जिओमागस बुकमार्क
बूस्टर प्लान
जिओ द्वारा प्रस्तावित बूस्टर प्लान
जिओ का बूस्टर रीचार्ज
बोरिंग दिवस
होतस्तार में ब्रेकडाउन
तोड़ होतस्तार में इसे कैसे हल करने के लिए
जियसिनेमा में ब्रेकडाउन
तोड़ जियसिनेमा में इसे कैसे हल करने के लिए
जिओतव में ब्रेकडाउन
तोड़ जिओतव में इसे कैसे हल करने के लिए
यूट्यूब में टूट रहा है
यू ट्यूब को तोड़ कर इसे कैसे हल करना है
होतस्तार का उपयोग करते समय ब्रेकडाउन
जियसिनेमा का उपयोग करते समय ब्रेकडाउन
जिओतव का उपयोग करते समय ब्रेकडाउन
यूट्यूब का उपयोग करते समय ब्रेकडाउन
जिओचात ऐप के बारे में जानकारी
संक्षिप्त कॉल फॉरवर्डिंग
संक्षिप्त कॉल प्रबंधन सेवाएं
संक्षिप्त कॉल सेवाएं
जिओ4gवॉइस में कॉल साझा में संक्षिप्त
संक्षिप्त जिओ नेट
संक्षिप्त जिओ ट्यूंस
संक्षिप्त जिओक्लाउड
संक्षिप्त जिओनेत
संक्षिप्त जिओनेवस्पपेर
संक्षिप्त जिओतव
संक्षिप्त एलटीई
कॉल प्रतीक्षा के बारे में मुझे बताएं
स्टार कास्ट के बारे में मुझे बताएं
शो के कास्ट पर मुझे संक्षिप्त करें
मुझे कॉल फॉरवर्डिंग के प्रकार संक्षिप्त करें
संक्षिप्त मीजिओ
जिओ4gवॉइस का संक्षिप्त रिच कॉल
मुझे खाना दो
जिओ के संस्थापक ब्राउज़ करें
होतस्तार में बफरिंग
जियसिनेमा में बफरिंग
जिओतव में बफरिंग
यूट्यूब में बफरिंग
फेसबुक में बफरिंग समस्या
एफबी में बफरिंग समस्या
होतस्तार में बफरिंग समस्या
जियसिनेमा में बफरिंग समस्या
जियमसिक में बफरिंग समस्या
जिओतव में बफरिंग समस्या
ऑनलाइन बफरिंग समस्या
यूट्यूब में बफरिंग समस्या
होतस्तार का उपयोग करते समय बफरिंग
जियसिनेमा का उपयोग करते समय बफरिंग
जिओतव का उपयोग करते समय बफरिंग
यूट्यूब का उपयोग करते समय बफरिंग
मेरा प्लेलिस्ट बनाएं
जिओमागस में बिजनेस पत्रिकाएं
जिओमागस की व्यावसायिक पत्रिकाएँ
10 gb डेटा खरीदें
जिओफी उपकरण खरीदें
मिफी उपकरण खरीदें
जिओ फोन खरीदें
जिओ फोन खरीदें
रिचार्ज प्लान के साथ जिओ प्रधानमंत्री खरीदें
मुझे एक डिवाइस बैटरी खरीदें
मुझे एक डिवाइस चार्जर खरीदें
मुझे एक मोबाइल बैटरी खरीदें
मुझे मोबाइल चार्जर खरीदें
मुझे फोन बैटरी खरीदें
मुझे फोन चार्जर खरीदें
रीचार्ज करके मुझे कितना नकद वापस मिलेगा
इसका मतलब यह है कि मैं अपना पैसा वापस पाऊंगा
इसका मतलब है कि मैं एक जिओ से वापस अपने पैसे प्राप्त करेंगे
इसका क्या मतलब है कि मैं अजिओ से अपना पैसा वापस पाऊंगा
इसका क्या मतलब है कि मैं जिओ. कॉम पर अपना पैसा वापस मिल जाएगा
इसका क्या मतलब है कि मुझे मेरी वापसी मिलेगी
इसका क्या मतलब है कि मुझे एक जिओ से मेरी वापसी मिलेगी
मुझे अजिओ से मेरी वापसी क्या होगी
मुझे जिओ. कॉम पर मेरी वापसी क्या होगी
मैं किस तरीके से जिओचात में क्यू आर कोड का उपयोग कर सकता हूँ
मैं अपने पैसे वापस किस तरीके से प्राप्त करूंगा
मैं किस तरीके से अपने पैसे एक जिओ से वापस प्राप्त करेंगे
मैं किस तरीके से अपने पैसे अजिओ से वापस प्राप्त करूंगा
मैं किस तरीके से अपने पैसे अजिओ पर वापस प्राप्त करूंगा
किस तरीके से मैं जिओ. कॉम पर अपने पैसे वापस प्राप्त करेंगे
मुझे किस तरीके से मेरी वापसी मिलेगी
किस तरीके से मुझे एक जिओ से मेरी वापसी मिलेगी
मुझे किस तरीके से अजिओ से मेरी वापसी मिलेगी
अजिओ पर मुझे किस तरीके से मेरी वापसी मिलेगी
मुझे जिओ. कॉम पर मेरी वापसी किस तरीके से मिलेगी
मुझे किस समय तक डिलीवरी की उम्मीद है
मैं किस समय तक अजिओ से वितरण की आशा कर सकता हूं
अलविदा अलविदा
शुभ रात्रि
विदा मैं तुम्हें कल देखेंगे
198 कॉल
कॉल कनेक्शन समस्या
कॉल ड्रॉप
जिओ पर कॉल सुविधाएं मेरे नंबर के लिए उपलब्ध नहीं हैं
अन्य ऑपरेटर कॉल करते समय कॉल निष्फल हो गया
कॉल इतिहास
कॉल एयर्सेल एयरटेल वोडाफोन से कनेक्ट नहीं हो रहा है
कॉल समस्या
कॉल की गुणवत्ता खराब है
जिओ4gवॉइस में साझा करें
कॉल करें कृपया मुझे रिलायंस जिओ के एन.एच.क्यू. का पता बताएँ
कॉल करें कृपया मुझे आर.सी.पी. का पता बताएं
कॉल करें कृपया मुझे रिलायंस कॉरपोरेट पार्क का पता बताएँ
कॉलर टोन
कॉलर धुन
कॉलर ट्यूंस
कॉल ठीक नहीं हैं
उपग्रह नंबर पर कॉल किया जा रहा है
कॉलिंग समस्या
प्रतिदिन कॉल ड्रॉप
क्या मेरे फ़ोन से अपलोड की गई फ़ाइल मेरे कंप्यूटर पर डाउनलोड की जा सकती है
क्या मेरे बैंक खाते में मेरे अजिओ स्टोर क्रेडिट को अजिओ कर सकते हैं
क्या किसी भी प्रतिभागी सम्मेलन समाप्त कर सकते हैं
क्या कोई भी व्यक्ति गूगल जिओफी आईटी ऑफर प्राप्त कर सकता है
क्या कोई अन्य व्यक्ति मेरी अजिओ पार्सल ले सकता है
क्या किसी भी प्रतिभागी सम्मेलन से बाहर निकल सकते हैं
क्या कोई भी सहभागी सम्मेलन से बाहर ले जा सकता है
क्या सेब वॉच मुझे मेरा बैलेंस दिखा सकता है
क्या सेब वॉच मुझे मेरा उपयोग दिखा सकता है
क्या आप ओ टी पी के उपयोग से अपने बैलेंस की पुष्टि कर सकते हैं
जिओफी के साथ स्मार्ट टीवी को जोड़ सकते हैं
कुछ अन्य स्थान पर रखी गई फिल्मों को डाउनलोड कर सकते हैं
क्या सभी को क्रिकेट के मौसम पैक के लाभ मिल सकते हैं
क्या मैं अंदर की सामग्री की जाँच के बाद अजिओ पैकेज को स्वीकार कर सकता हूँ
सत्यापन के बाद क्या मैं अजिओ पार्सल स्वीकार कर सकता हूँ
क्या मैं अंदर की सामग्री की जाँच के बाद पैकेज स्वीकार कर सकता हूँ
क्या मैं सत्यापन के बाद पार्सल स्वीकार कर सकता हूँ
क्या मैं लैपटॉप से जिओ पत्रिका तक पहुँच सकता हूँ
क्या मैं जिओक्लाउड फ़ाइलों को ऑनलाइन एक्सेस कर सकता हूँ
क्या मैं डेस्कटॉप से जिओमागस तक पहुँच सकता हूँ
क्या मैं अपने डेस्कटॉप से जिओतव तक पहुँच सकता हूँ
क्या मैं अपने निजी कंप्यूटर से जिओतव तक पहुंच सकता हूँ
क्या मैं मीजिओ ऐप तक पहुंच सकता हूं जब मेरे पास कोई डेटा शेष नहीं बचा है
क्या मैं अपने कॉलेज में असीमित जिओ वाईफाई एक्सेस कर सकता हूँ
क्या मैं किसी भी नई योजना को सक्रिय कर सकता हूँ जब एक मौजूदा योजना है
क्या मैं जिओ नंबर पर अंतरराष्ट्रीय रोमिंग सक्रिय कर सकता हूँ
क्या मैं jio नंबर पर एस्ड रोमिंग सक्रिय कर सकता हूँ
क्या मैं इस नंबर में एक और योजना जोड़ सकता हूँ
क्या मैं क्रिकेट प्ले पर प्रतिक्रिया जोड़ सकता हूँ
क्या मैं जिओएक्षप्रेस्सनेवस पर प्रतिक्रिया जोड़ सकता हूँ
क्या मैं जिओतव पर प्रतिक्रिया जोड़ सकता हूँ
क्या मैं ध्वनि कॉंफ्रेंसिंग में लैंडलाइन जोड़ सकता हूँ
क्या मैं अपनी वॉच सूची में कई वीडियो जोड़ सकता हूँ
क्या मैं अपना समाचार पत्र जोड़ सकता हूँ
क्या मैं अपने पसंदीदा समाचार पत्र को जिओ समाचार पत्र में जोड़ सकता हूँ
क्या मैं अपना पसंदीदा समाचार पत्र जिओनेवस्पपेर में जोड़ सकता हूँ
क्या मैं अपना पसंदीदा अखबार जिओनेवस्पपेर में जोड़ सकता हूँ
क्या मैं अपने प्लेलिस्ट में रेडियो जोड़ सकता हूँ
क्या मैं जिओनेवस्पपेर में विशेष समाचार पत्र जोड़ सकता हूँ
क्या मैं जिओनेवस्पपेर में विशिष्ट समाचार पत्र जोड़ सकता हूँ
क्या मैं अजिओ खाते में स्टोर क्रेडिट जोड़ सकता हूँ
क्या मैं इस समाचार पत्र को मेरे पसंदीदा के रूप में जोड़ सकता हूँ
क्या मैं इस अख़बार को अपने पसंदीदा के रूप में जोड़ सकता हूँ
क्या मैं अपनी वॉच सूची में असीमित वीडियो जोड़ सकता हूँ
क्या मैं शैली के अनुसार जियसिनेमा फिल्मों को समायोजित कर सकता हूँ
क्या मैं जियसिनेमा फिल्मों को शैली के आधार पर समायोजित कर सकता हूँ
क्या मैं जियमसिक ऐप में भिन्न पृष्ठभूमि लागू कर सकता हूँ
क्या मैं जियमसिक अनुप्रयोग में भिन्न पृष्ठभूमि लागू कर सकता हूँ
क्या मैं जिओनेवस्पपेर एप्लीकेशन में पुराने समाचार पत्रों को स्वतः मिटा सकता हूँ
क्या मैं जिओनेवस्पपेर आवेदन में समाचार पत्रों के पुराने मुद्दों को स्वतः मिटा सकता हूँ
क्या मैं जिओनेवस्पपेर आवेदन से अख़बारों के मुद्दों को स्वतः डाउनलोड कर सकता हूं
क्या मैं स्वतः समाचार पत्र का अनुभाग डाउनलोड कर सकता हूं
क्या मैं सैमसंग गैलेक्सी जे2 2018 जिओ कैशबैक और अतिरिक्त डेटा ऑफर 2018 के साथ किसी और जिओ ऑफर का लाभ उठा सकता हूँ
क्या मैं जिओ फुटबॉल ऑफर का लाभ उठा सकता हूँ
क्या मैं जिओ तत्काल कैशबैक ऑफर का लाभ उठा सकता हूँ
क्या मैं जिओचात उपयोगकर्ता को ब्लॉक कर सकता हूँ
क्या मैं किसी को जिओचात पर ब्लॉक कर सकता हूँ
क्या मैं जिओमोनेय का उपयोग करके हवाई जहाज टिकट बुक कर सकता हूँ
क्या मैं जिओमोनेय ऐप का उपयोग करके हवाई जहाज टिकट बुक कर सकता हूँ
क्या मैं जिओमोनेय का उपयोग करके हवाई जहाज टिकट बुक कर सकता हूँ
क्या मैं जिओमोनेय ऐप का उपयोग करके हवाई जहाज टिकट बुक कर सकता हूँ
क्या मैं जिओमोनेय का उपयोग करके बस टिकट बुक कर सकता हूँ
क्या मैं जिओमोनेय ऐप का उपयोग करके बस टिकट बुक कर सकता हूँ
क्या मैं जिओमोनेय का उपयोग करके उड़ान टिकट बुक कर सकता हूँ
क्या मैं जिओमोनेय ऐप का उपयोग करके उड़ान टिकट बुक कर सकता हूँ
क्या मैं जिओ फोन बुक कर सकता हूँ
क्या मैं जिओ फोन बुक कर सकता हूँ
क्या मैं जिओमोनेय का उपयोग करके हवाई टिकट बुक कर सकता हूँ
क्या मैं जिओमोनेय ऐप का उपयोग करके हवाई टिकट बुक कर सकता हूँ
क्या मैं जिओमोनेय का उपयोग करके ट्रेन टिकट बुक कर सकता हूँ
क्या मैं जिओमोनेय ऐप का उपयोग करके ट्रेन टिकट बुक कर सकता हूँ
क्या मैं कॉल के साथ डेटा ब्राउज़ कर सकता हूँ
क्या मैं डेटा ब्राउज़ कर सकता हूँ और एक साथ कॉल कर सकता हूँ
कॉल करते समय क्या मैं डेटा ब्राउज़ कर सकता हूँ
क्या मैं कॉल के साथ इंटरनेट ब्राउज़ कर सकता हूँ
क्या मैं इंटरनेट ब्राउज़ कर सकता हूँ और एक साथ कॉल कर सकता हूँ
क्या मैं कॉल करते समय इंटरनेट ब्राउज़ कर सकता हूँ
क्या मैं कॉल के साथ नेट ब्राउज़ कर सकता हूँ
क्या मैं नेट ब्राउज़ कर सकता हूँ और एक साथ कॉल कर सकता हूँ
कॉल करते समय क्या मैं नेट ब्राउज़ कर सकता हूँ
क्या मैं एक सफेद lf फोन खरीद सकता हूँ
क्या मैं जिओमोनेय के माध्यम से हवाई जहाज टिकट खरीद सकता हूँ
क्या मैं जिओमोनेय ऐप के माध्यम से हवाई जहाज टिकट खरीदें
क्या मैं जिओमोनेय के माध्यम से हवाई जहाज टिकट खरीद सकता हूँ
क्या मैं जिओमोनेय ऐप के माध्यम से हवाई जहाज टिकट खरीदें
क्या मैं जिओमोनेय ऐप के माध्यम से बस टिकट खरीद सकता हूँ
क्या मैं एक ही क्रम में आठ डिवाइस खरीद सकता हूँ
क्या मैं जिओमोनेय के माध्यम से उड़ान टिकट खरीद सकता हूँ
क्या मैं जिओमोनेय ऐप के माध्यम से उड़ान टिकट खरीदें
क्या मैं चार डिवाइस एक ही क्रम में खरीद सकता हूँ
क्या मैं रिलायंस जवाहरात में जवाहरात खरीद सकता हूँ
क्या मैं जिओ फोन अभी खरीद सकता हूँ
क्या मैं अब जिओ फोन खरीद सकता हूँ
क्या मैं जिओ सिम खरीद सकता हूँ
क्या मैं ऑनलाइन खुशी के साथ जिओफी उपकरण खरीदें
क्या मैं रिलायंस डिजिटल से खुशी नए साल की पेशकश के साथ जिओफी खरीदें
क्या मैं एक ही क्रम में एक से अधिक हैंडसेट खरीद सकता हूँ
क्या मैं एक ही क्रम में एक से अधिक जिओi खरीद सकता हूँ
क्या मैं एक ऑर्डर में कई डिवाइस खरीद सकता हूँ
क्या मैं एक ही क्रम में कई डिवाइस खरीदें
क्या मैं कई जिओ सिम्स खरीद सकता हूँ
क्या मैं जिओमोनेय के माध्यम से प्लान टिकट खरीद सकता हूँ
क्या मैं जिओमोनेय के माध्यम से हवाई टिकट खरीद सकता हूँ
क्या मैं जिओमोनेय ऐप के माध्यम से हवाई टिकट खरीद सकता हूँ
क्या मैं किश्तों में उत्पाद खरीद सकता हूँ
क्या मैं ई एम आई के माध्यम से उत्पादों को खरीद सकता हूँ
क्या मैं ई एम आई के माध्यम से सेवाएं खरीद सकता हूँ
क्या मैं तीन जिओ सिम्स खरीद सकता हूँ
क्या मैं जिओमोनेय के माध्यम से ट्रेन टिकट खरीद सकता हूँ
क्या मैं जिओमोनेय ऐप के माध्यम से ट्रेन टिकट खरीदें
क्या मैं दो डिवाइस एक ही क्रम में खरीद सकता हूँ
क्या मैं दो जिओ फोन खरीद सकता हूँ
क्या मैं रिलायंस फ्रेश में सब्जियों को खरीद सकता हूँ
क्या मैं ध्वनि कॉंफ्रेंसिंग पर कोई भी नंबर कॉल कर सकता हूँ
क्या मैं उपग्रह नंबर पर कॉल कर सकता हूँ
क्या मैं अजिओ ऑर्डर रद्द कर सकता हूँ
क्या मैं उसे देने के बाद ऑर्डर रद्द कर सकता हूँ
क्या मैं अजिओ का आदेश रद्द कर सकता हूँ
क्या मैं जियमसिक की पृष्ठभूमि बदल सकता हूँ
क्या मैं जिओ फोन की भाषा बदल सकता हूँ
क्या मैं जिओ फोन की भाषा बदल सकता हूँ
क्या मैं जियसिनेमा ऐप की भाषा बदल सकता हूँ
क्या मैं सभी जियसिनेमा डाउनलोड की गई फिल्मों का स्थान बदल सकता हूँ
क्या मैं अपनी श्रेणी वरीयता जिओएक्षप्रेस्सनेवस में बदल सकता हूँ
क्या मैं अपनी श्रेणी वरीयता जिओक्षप्रेस्सनेवस में बदल सकता हूँ
क्या मैं जिओएक्षप्रेस्सनेवस में अपनी सामग्री भाषा वरीयताएं बदल सकता हूँ
क्या मैं जिओक्षप्रेस्सनेवस में अपनी सामग्री भाषा वरीयताएं बदल सकता हूँ
क्या मैं ऑर्डर देने के बाद अपना वितरण पता बदल सकता हूँ
क्या मैं अजिओ पर ऑर्डर देने के बाद अपना वितरण पता बदल सकता हूँ
क्या मैं अजिओ पर अपना वितरण पता या मोबाइल नंबर बदल सकता हूँ
क्या मैं अपना जिओ4gवॉइस ऐप नंबर बदल सकता हूँ
क्या मैं अपना जिओ4gवॉइस ऐप फोन नंबर बदल सकता हूँ
क्या मैं अजिओ पर ऑर्डर देने के बाद अपना मोबाइल नंबर बदल सकता हूँ
क्या मैं अपना नंबर बदल सकता हूँ और फिर से खेल सकता हूँ
क्या मैं अपने व्यक्तिगत विवरण जिओ फाइबर खाते में बदल सकता हूँ
क्या मैं मीजिओ में अपना व्यक्तिगत विवरण बदल सकता हूँ
क्या मैं जिओ फाइबर कनेक्शन के साथ प्राप्त अपने wifi पासवर्ड को बदल सकता हूँ
क्या मैं संगीत की ऑडियो गुणवत्ता बदल सकता हूँ जो मैं सुन रहा हूँ
क्या मैं आवेदन की पृष्ठभूमि बदल सकता हूँ
क्या मैं अपने ऑर्डर के लिए वितरण तिथि या समय बदल सकता हूँ
क्या मैं जियसिनेमा ऐप की भाषा बदल सकता हूँ
क्या मैं जिओ4gवॉइस की अधिसूचना सेटिंग बदल सकता हूँ
क्या मैं जिओएक्षप्रेस्सनेवस की अधिसूचना सेटिंग बदल सकता हूँ
क्या मैं अपने प्लेलिस्ट में गाने का क्रम बदल सकता हूँ
क्या मैं जिओएक्षप्रेस्सनेवस में पाठ आकार सेटिंग बदल सकता हूँ
क्या मैं जिओ एजेंट से बात कर सकता हूँ
क्या मैं इसे डाउनलोड करने से पहले एक पत्रिका की जाँच कर सकता हूँ
क्या मैं जांच सकता हूँ कि मेरा ईमेल पता मीजिओ में अद्यतन है या नहीं
क्या मैं जांच सकता हूँ कि मेरा ईमेल पता मीजिओ में अपडेट किया गया है
क्या मैं जांच सकता हूँ कि मेरा जिओ ऐप अप टू डेट हैं
क्या मैं जांच सकता हूं कि मेरे जिओ ऐप को अपडेट किया गया है या नहीं
क्या मैं जांच सकता हूँ कि मेरा नंबर मीजिओ में दिनांक तक है या नहीं
क्या मैं जांच सकता हूँ कि मेरा नंबर मीजिओ में अपडेट किया गया है
क्या मैं जांच सकता हूँ कि मेरा प्रोफ़ाइल मीजिओ में अद्यतन है या नहीं
क्या मैं जांच सकता हूँ कि मेरा प्रोफ़ाइल मीजिओ में अपडेट किया गया है
क्या मैं अपने सेब वॉच पर अपना बैलेंस जांच सकता हूँ
क्या मैं अपने सेब वॉच पर अपने उपयोग की जाँच कर सकता हूँ
क्या मैं जांच सकता हूं कि सिम का होम डिलीवरी मेरे स्थान पर उपलब्ध है या नहीं
क्या मैं इसे खोल कर अजिओ पैकेज की जाँच कर सकता हूँ
क्या मैं वितरण स्वीकार करने से पहले अजिओ उत्पाद की जाँच कर सकता हूँ
क्या मैं इसे खोल कर पैकेज की जाँच कर सकता हूँ
क्या मैं अजिओ से डिलीवरी स्वीकार करने से पहले उत्पाद की जाँच कर सकता हूँ
क्या मैं जिओ सिम का लाभ उठाते समय एक पसंदीदा नंबर चुन सकता हूँ
क्या मैं जिओक्लाउड से कनेक्ट करते समय wifi और मोबाइल डेटा नेटवर्क के बीच चयन कर सकता हूँ
क्या मैं अपना पसंदीदा नंबर चुन सकता हूँ
क्या मैं नंबर चुन सकता हूँ जो मैं चाहता हूँ
क्या मैं जिओएक्षप्रेस्सनेवस में अपनी कैश मेमोरी साफ़ कर सकता हूँ
क्या मैं आपसे हिंदी में संपर्क कर सकता हूं
क्या मैं जिओ सिम के साथ अपने फ़ोन के व्यक्तिगत हॉटस्पॉट का उपयोग करके g आवाज के लिए जिओ को कॉंफ़िगर कर सकता हूँ
क्या मैं जिओ सिम के साथ अपने फ़ोन के व्यक्तिगत हॉटस्पॉट का उपयोग करके जिओ चार g आवाज कॉंफ़िगर कर सकता हूँ
क्या मैं जिओ सिम के साथ अपने फ़ोन के व्यक्तिगत हॉटस्पॉट का उपयोग करके जिओ4gवॉइस को कॉंफ़िगर कर सकता हूँ
क्या मैं जिओफी का उपयोग करके android tv कनेक्ट कर सकता हूँ
क्या मैं एक समय में जिओफी करने के लिए पांच डिवाइस कनेक्ट कर सकता हूँ
क्या मैं जिओफी का उपयोग करके स्मार्ट टीवी पर इंटरनेट से कनेक्ट कर सकता हूँ
क्या मैं jo फ़ोन को टीवी के साथ जोड़ सकता हूँ
क्या मैं अपने फ़ोन को जिओ नेट से स्वतः कनेक्ट कर सकता हूँ
क्या मैं अपने फ़ोन को जिओनेत से स्वतः कनेक्ट कर सकता हूँ
क्या मैं वीडियो कॉल कनेक्ट कर सकता हूँ
क्या मैं जिओफिबेर के साथ wifi कनेक्ट कर सकता हूँ
क्या मैं पोस्टपेड से प्रीपेड में बदल सकता हूँ
क्या मैं प्रीपेड से पोस्टपेड में बदल सकता हूँ और इसके विपरीत
क्या मैं अपने प्रीपेड को पोस्टपेड में बदल सकता हूँ
क्या मैं पोस्टपेड को प्रीपेड में बदल सकता हूँ
क्या मैं प्रीपेड को पोस्टपेड में बदल सकता हूँ
क्या मैं अपने मित्र के जिओ ट्यून की नक़ल कर सकता हूँ
क्या मैं जिओक्लाउड पर फ़ाइलों को श्रेणीबद्ध करने के लिए फ़ोल्डर बना सकता हूँ
क्या मैं जिओचात में समूह बना सकता हूँ
क्या मैं एक से अधिक प्लेलिस्ट बना सकता हूँ
क्या मैं अपनी पसंद के कई प्लेलिस्ट बना सकता हूँ
क्या मैं बहु गीत सूची बना सकता हूँ
क्या मैं अपना sim कार्ड निष्क्रिय कर सकता हूँ
क्या मैं जिओक्लाउड से स्थायी रूप से एक फ़ाइल मिटा सकता हूँ
क्या मैं भारत के बाहर दे सकता हूँ
क्या मैं अजिओ के साथ भारत के बाहर दे सकता हूँ
क्या मैं किसी पैकेज को दूसरे देश को दे सकता हूँ
क्या मैं अजिओ से अन्य देश को एक पैकेज प्रदान कर सकता हूँ
क्या मैं जिओचात पर ऑडियो और वीडियो कॉंफ्रेंस कॉल कर सकता हूँ
क्या मैं जिओचात में ऑडियो कॉल कर सकता हूँ
क्या मैं जिओचात के माध्यम से ऑडियो कॉंफ्रेंस कॉल कर सकता हूँ
क्या मैं जिओचात में कॉल कर सकता हूँ
क्या मैं असीमित फ्री वॉइस कॉल कर सकता हूँ
क्या मैं जिओचात में वीडियो कॉल कर सकता हूँ
क्या मैं 4g समर्थन पर वीडियो कॉल कर सकता हूँ
क्या मैं जिओचात के साथ वीडियो कॉंफ्रेंस कॉल कर सकता हूँ
क्या मैं जिओचात में ध्वनि कॉल कर सकता हूँ
क्या मैं वीडियो कॉल को वॉइस कॉल में डाउनग्रेड कर सकता हूँ
क्या मैं अपने कंप्यूटर पर एक फाइल डाउनलोड कर सकता हूँ कि मैं अपने फ़ोन से अपलोड किया
क्या मैं फ़िल्म या tv शो डाउनलोड कर सकता हूँ
क्या मैं गाना डाउनलोड कर सकता हूँ
क्या मैं चॉलेर्टयून्स डाउनलोड कर सकता हूँ
क्या मैं जियसिनेमा पर कंटेंट डाउनलोड कर सकता हूँ
क्या मैं प्ले स्टोर से जिओ कॉलिंग ऐप डाउनलोड कर सकता हूँ
क्या मैं android os के अलावा जियसिनेमा डाउनलोड कर सकता हूँ
क्या मैं जिओमागस डाउनलोड कर सकता हूँ
क्या मैं किसी भी डिवाइस पर जिओनेत ऐप डाउनलोड कर सकता हूँ
क्या मैं फिल्मों को डाउनलोड कर सकता हूँ
क्या मैं सीधे मेरे बाहरी मेमोरी में फिल्मों को डाउनलोड कर सकता हूँ
क्या मैं सीधे अपने sd कार्ड में फिल्मों को डाउनलोड कर सकता हूँ
क्या मैं सिनेमा पर फिल्मों को डाउनलोड कर सकता हूँ
क्या मैं जियसिनेमा पर फिल्मों को डाउनलोड कर सकता हूँ
क्या मैं अपने मेमोरी कार्ड पर फिल्मों को डाउनलोड कर सकता हूँ
क्या मैं एक ही समय में कई पत्रिकाओं को डाउनलोड कर सकता हूँ
क्या मैं जिओक्लाउड की मौजूदा फ़ाइलों को संपादित कर सकता हूँ
क्या मैं जिओक्लाउड सेटिंग संपादित कर सकता हूँ
क्या मैं अपना वैकल्पिक संपर्क नंबर संपादित कर सकता हूँ
क्या मैं जिओक्लाउड में अपना ईमेल आईडी संपादित कर सकता हूँ
क्या मैं अपना जिओमोनेय प्रोफ़ाइल संपादित कर सकता हूँ
क्या मैं जिओक्लाउड में अपना नंबर संपादित कर सकता हूँ
क्या मैं मीजिओ में अपनी व्यक्तिगत जानकारी संपादित कर सकता हूँ
क्या मैं अपना पंजीकृत मोबाइल नंबर संपादित कर सकता हूँ
क्या मैं एक जिओ ऑर्डर बदल सकता हूँ
क्या मैं एक जिओ उत्पाद बदल सकता हूँ
क्या मैं अपना अजिओ ऑर्डर बदल सकता हूँ
क्या मैं अपना अजिओ उत्पाद बदल सकता हूँ
क्या मैं अपना ऑर्डर बदल सकता हूँ
क्या मैं जिओचात संदेश भेज सकता हूँ
अगर मैं ऑफर अवधि के दौरान अपने खरीदे गए वाउचर को रिडीम करता हूँ तो क्या मुझे सभी जिओ डबल धमका लाभ मिल सकता है
क्या मैं बहुत से jo फोन जैसे मैं चाहता हूँ
क्या मुझे सभी बहुचारकों पर जिओ डबल धमका ऑफर का लाभ मिल सकता है
क्या मुझे jio के दो लाभ मिल सकते हैं यदि मैं पहले से ही पुनःचरण कर चुका हूँ और मेरी योजना कतार में है
क्या मुझे मेरे अजिओ ऑर्डर का बिल मिल सकता है
क्या मैं नए साल के ऑफर से किसी भी वॉलेट में कैशबैक प्राप्त कर सकता हूँ
क्या मुझे भारत के बाहर एक पैकेज की सुपुर्दगी मिल सकती है
क्या मुझे अजिओ से भारत के बाहर एक पैकेज की सुपुर्दगी मिल सकती है
क्या मुझे जियसिनेमा में विभिन्न भाषा फिल्में मिल सकती हैं
क्या मुझे जिओमागस पर शिक्षा से संबंधित पत्रिकाएं मिल सकती हैं
क्या मुझे जिओ सिम की मुफ्त होम डिलीवरी मिल सकती है
क्या मैं सीमित कंप्लीमेंटरी कोटा के ऊपर मुफ्त वाईफाई प्राप्त कर सकता हूँ
क्या मुझे सामान्य ब्याज पत्रिकाएं मिल सकती हैं
क्या मैं जिओफी के लिए डिजिटल मिनी में नए साल की पेशकश प्राप्त कर सकता हूँ
क्या मुझे जिओमागस में हिंदी पत्रिकाएं मिल सकती हैं
क्या मुझे जिओ सिम की होम डिलीवरी मिल सकती है
क्या मुझे मेरे स्थान पर जिओ सिम की होम डिलीवरी मिल सकती है
क्या मुझे गीतकार गायक और संगीतकारों के बारे में जानकारी मिल सकती है
क्या मैं अपने अजिओ ऑर्डर का इनवॉइस प्राप्त कर सकता हूँ
क्या मैं जिओ गोल्ड पास मिल सकता हूँ
क्या मुझे मेरे घर पर जिओ सिम डिलीवरी मिल सकती है
क्या मैं जिओ सिम फार्म वेबसाइट प्राप्त कर सकता हूँ
क्या मैं जज वेबसाइट से जिओ सिम प्राप्त कर सकता हूँ
क्या मैं मीजिओ से जिओ सिम प्राप्त कर सकता हूँ
क्या मैं जिओ सिम ऑनलाइन प्राप्त कर सकता हूँ
क्या मैं प्रत्येक lif फोन के साथ जिओ सिम प्राप्त कर सकता हूँ
क्या मैं मीजिओ ऐप पर जिओ सिम प्राप्त कर सकता हूँ
क्या मैं अपनी क्षेत्रीय भाषा में जियसिनेमा पा सकता हूँ
क्या मैं ई बिल के बिना जज नया पोस्टपेड प्लान प्राप्त कर सकता हूँ
क्या मैं प्ले स्टोर से जिओतव प्राप्त कर सकता हूँ
क्या मैं मीजिओ ऐप के माध्यम से जिओ ऐप लॉंच कर सकता हूँ
क्या मुझे विभिन्न भाषाओं में पत्रिकाएं मिल सकती हैं
क्या मुझे विभिन्न भाषाओं की पत्रिकाएं मिल सकती हैं
क्या मुझे एक से अधिक जिओ फोन मिल सकता है
क्या मुझे फिल्में शैली के आधार पर मिल सकती हैं
क्या मुझे जिओ स्टोर से कई जिओ सिम मिल सकता है
अगर मैं एक से अधिक जिओफी डिवाइस खरीदें तो क्या मुझे एकाधिक जिओ सिम मिल सकते हैं
क्या मैं अपना अजिओ स्टोर क्रेडिट मेरे बैंक खाते में वापस कर सकता हूँ
क्या मैं अपना ऑर्डर आज दे सकता हूँ
क्या मैं अपने उत्पाद को लपेटने के साथ प्राप्त कर सकता हूँ
क्या मुझे नया जिओ सिम मिल सकता है
क्या मुझे नया सिम मिल सकता है
क्या मैं अधिसूचना प्राप्त कर सकता हूँ जब जियसिनेमा में नया संस्करण है
क्या मुझे नंबर मिल सकता है जो मुझे पसंद है
क्या मैं हाल ही में फिल्मों को देखा जा सकता हूँ
क्या मैं सैमसंग गैलेक्सी j2 ऑफर प्राप्त कर सकता हूँ
क्या मुझे मेरे स्थान पर सिम मिल सकती है
क्या मैं lf मोबाइल के साथ सिम प्राप्त कर सकता हूँ
क्या मैं गणतंत्र दिवस के लिए विशेष योजनाएं प्राप्त कर सकता हूँ
क्या मैं गणतंत्र दिवस 2018 के लिए विशेष योजनाएं प्राप्त कर सकता हूँ
क्या मुझे जिओ फोन के विनिर्देश मिल सकते हैं
क्या मुझे जिओ फोन की कल्पना मिल सकती है
क्या मुझे जिओमागस पर खेल पत्रिकाएं मिल सकती हैं
क्या मुझे आने वाले कॉल का विवरण मिल सकता है
